{
  "chainName": "PrivateNet",
  "netName": "PrivateNet",
  "averageBlockTime": 6000,
  "requiredConfirmation": 1,
  "startCrawlBlock": 20000,
  "explorerEndpoint": "http://192.168.1.203:4000",
  "neoscanUrl":"http://192.168.1.203:4000/api/main_net/v1",
  "rpcEndpoint":"http://192.168.1.203:30333",
  "tokens": []
}