{
  "chainName": "Mainnet",
  "explorerEndpoint": "https://explorer.dash.org",
  "apiEndpoints": [
    "https://insight.dash.org/insight-api-dash"
  ],
  "requiredConfirmation": 3,
  "averageBlockTime": 15000,
  "startCrawlBlock": 1
}
